ALU.vcd
$date
   Thu Apr 16 18:50:26 2026
$end

$version
  2025.2
  $dumpfile ("ALU.vcd") 
$end

$timescale
  1ps
$end

$scope module tb_ALU4ops $end
$var reg 32 ! a_ti [31:0] $end
$var reg 32 " b_ti [31:0] $end
$var reg 2 # sel_ti [1:0] $end
$var wire 32 $ dout_to [31:0] $end
$var wire 1 % fZero_to $end
$var wire 1 & fCarry_to $end
$var wire 1 ' fOverflow_to $end
$var wire 1 ( fNegative_to $end
$var reg 32 ) exp_result [31:0] $end
$var reg 1 * exp_fCarry $end
$var reg 1 + exp_Scarry $end
$var reg 1 , exp_fOverflow $end
$var reg 1 - exp_fNegative $end
$var reg 1 . exp_fZero $end
$var integer 32 / check_count [31:0] $end
$var integer 32 0 pass [31:0] $end
$var integer 32 1 fail [31:0] $end
$scope module DUT $end
$var wire 32 2 a_i [31:0] $end
$var wire 32 3 b_i [31:0] $end
$var wire 2 4 sel_i [1:0] $end
$var reg 32 5 dout_o [31:0] $end
$var reg 1 6 fZero_o $end
$var reg 1 7 fCarry_o $end
$var reg 1 8 fOverflow_o $end
$var reg 1 9 fNegative_o $end
$var wire 32 : sum_o [31:0] $end
$var wire 1 ; Acarry_o $end
$var wire 32 < diff_o [31:0] $end
$var wire 1 = Scarry_o $end
$var wire 32 > and_o [31:0] $end
$var wire 32 ? or_o [31:0] $end
$upscope $end
$scope task checker $end
$upscope $end
$upscope $end
$enddefinitions $end

#0
$dumpvars
b101 !
b11 "
b0 #
b1000 $
0%
0&
0'
0(
b1000 )
0*
x+
0,
0-
0.
b0 /
b0 0
b0 1
b101 2
b11 3
b0 4
b1000 5
06
07
08
09
b1000 :
0;
b10 <
0=
b1 >
b111 ?
$end

#2000
b1 /
b1 0

#5000
b0 !
b0 "
b0 $
1%
b0 )
1.
b0 2
b0 3
b0 5
16
b0 :
b0 <
b0 >
b0 ?

#7000
b10 /
b10 0

#10000
b11111111111111111111111111111111 !
b1 "
1&
1*
1.
b11111111111111111111111111111111 2
b1 3
17
1;
b11111111111111111111111111111110 <
b1 >
b11111111111111111111111111111111 ?

#12000
b11 /
b11 0

#15000
b1111111111111111111111111111111 !
b10000000000000000000000000000000 $
0%
0&
1'
1(
b10000000000000000000000000000000 )
0*
1,
1-
0.
b1111111111111111111111111111111 2
b10000000000000000000000000000000 5
06
07
18
19
b10000000000000000000000000000000 :
0;
b1111111111111111111111111111110 <
b1111111111111111111111111111111 ?

#17000
b100 /
b100 0

#20000
b10000000000000000000000000000000 !
b10000000000000000000000000000000 "
b0 $
1%
1&
0(
b0 )
1*
1,
0-
1.
b10000000000000000000000000000000 2
b10000000000000000000000000000000 3
b0 5
16
17
18
09
b0 :
1;
b0 <
b10000000000000000000000000000000 >
b10000000000000000000000000000000 ?

#22000
b101 /
b101 0

#25000
b11111111111111111111111111111111 !
b11111111111111111111111111111111 "
b11111111111111111111111111111110 $
0%
0'
1(
b11111111111111111111111111111110 )
1*
0,
1-
0.
b11111111111111111111111111111111 2
b11111111111111111111111111111111 3
b11111111111111111111111111111110 5
06
17
08
19
b11111111111111111111111111111110 :
b11111111111111111111111111111111 >
b11111111111111111111111111111111 ?

#27000
b110 /
b110 0

#30000
b10001000100010001000100010001000 !
b1110111011101110111011101110111 "
b11111111111111111111111111111111 $
0&
b11111111111111111111111111111111 )
0*
1-
b10001000100010001000100010001000 2
b1110111011101110111011101110111 3
b11111111111111111111111111111111 5
07
b11111111111111111111111111111111 :
0;
b10001000100010001000100010001 <
b0 >

#32000
b111 /
b111 0

#35000
b111 !
b110 "
b1 #
b1 $
1&
0(
b1 )
1*
0+
0-
b111 2
b110 3
b1 4
b1 5
17
09
b1101 :
b1 <
b110 >
b111 ?

#37000
b1000 /
b1000 0

#40000
b110 !
b111 "
b11111111111111111111111111111111 $
0&
1(
b11111111111111111111111111111111 )
0*
1+
1-
b110 2
b111 3
b11111111111111111111111111111111 5
07
19
b11111111111111111111111111111111 <
1=

#42000
b1001 /
b1001 0

#45000
b11111111111111111111111111111111 !
b11111111111111111111111111111111 "
b0 $
1%
1&
0(
b0 )
1*
0+
0-
1.
b11111111111111111111111111111111 2
b11111111111111111111111111111111 3
b0 5
16
17
09
b11111111111111111111111111111110 :
1;
b0 <
0=
b11111111111111111111111111111111 >
b11111111111111111111111111111111 ?

#47000
b1010 /
b1010 0

#50000
b0 !
b0 "
1*
1.
b0 2
b0 3
17
b0 :
0;
b0 >
b0 ?

#52000
b1011 /
b1011 0

#55000
b110011001100110011001100110011 !
b11001100110011001100110011001100 "
b1100110011001100110011001100111 $
0%
0&
b1100110011001100110011001100111 )
0*
1+
0.
b110011001100110011001100110011 2
b11001100110011001100110011001100 3
b1100110011001100110011001100111 5
06
07
b11111111111111111111111111111111 :
b1100110011001100110011001100111 <
1=
b11111111111111111111111111111111 ?

#57000
b1100 /
b1100 0

#60000
b10101011110011011110111100000001 !
b10101011110011011110111100000001 "
b0 $
1%
1&
b0 )
1*
0+
1.
b10101011110011011110111100000001 2
b10101011110011011110111100000001 3
b0 5
16
17
b1010111100110111101111000000010 :
1;
b0 <
0=
b10101011110011011110111100000001 >
b10101011110011011110111100000001 ?

#62000
b1101 /
b1101 0

#65000
b1111111111111111111111111111111 !
b11111111111111111111111111111111 "
b10000000000000000000000000000000 $
0%
0&
1'
1(
b10000000000000000000000000000000 )
0*
1+
1,
1-
0.
b1111111111111111111111111111111 2
b11111111111111111111111111111111 3
b10000000000000000000000000000000 5
06
07
18
19
b1111111111111111111111111111110 :
b10000000000000000000000000000000 <
1=
b1111111111111111111111111111111 >
b11111111111111111111111111111111 ?

#67000
b1110 /
b1110 0

#70000
b111 !
b111 "
b10 #
b111 $
0'
0(
b111 )
0,
0-
b111 2
b111 3
b10 4
b111 5
08
09
b1110 :
0;
b0 <
0=
b111 >
b111 ?

#72000
b1111 /
b1111 0

#75000
b1110011101001110011100110111111 !
b10111001111000001010011110000 "
b10011001001000001000010110000 $
b10011001001000001000010110000 )
b1110011101001110011100110111111 2
b10111001111000001010011110000 3
b10011001001000001000010110000 5
b10001010111000110100111010101111 :
b1011100011010110010010011001111 <
b10011001001000001000010110000 >
b1110111101111110011110111111111 ?

#77000
b10000 /
b10000 0

#80000
b0 !
b0 "
b0 $
1%
b0 )
1.
b0 2
b0 3
b0 5
16
b0 :
b0 <
b0 >
b0 ?

#82000
b10001 /
b10001 0

#85000
b11111111111111111111111111111111 !
b11111111111111111111111111111111 "
b11111111111111111111111111111111 $
0%
1(
b11111111111111111111111111111111 )
1-
0.
b11111111111111111111111111111111 2
b11111111111111111111111111111111 3
b11111111111111111111111111111111 5
06
19
b11111111111111111111111111111110 :
1;
b11111111111111111111111111111111 >
b11111111111111111111111111111111 ?

#87000
b10010 /
b10010 0

#90000
b10011001100110011001100110011001 !
b1100110011001100110011001100110 "
b0 $
1%
0(
b0 )
0-
1.
b10011001100110011001100110011001 2
b1100110011001100110011001100110 3
b0 5
16
09
b11111111111111111111111111111111 :
0;
b110011001100110011001100110011 <
b0 >

#92000
b10011 /
b10011 0

#95000
b111 !
b111 "
b11 #
b111 $
0%
b111 )
0.
b111 2
b111 3
b11 4
b111 5
06
b1110 :
b0 <
b111 >
b111 ?

#97000
b10100 /
b10100 0

#100000
b1110011101001110011100110111111 !
b10111001111000001010011110000 "
b1110111101111110011110111111111 $
b1110111101111110011110111111111 )
b1110011101001110011100110111111 2
b10111001111000001010011110000 3
b1110111101111110011110111111111 5
b10001010111000110100111010101111 :
b1011100011010110010010011001111 <
b10011001001000001000010110000 >
b1110111101111110011110111111111 ?

#102000
b10101 /
b10101 0

#105000
b0 !
b0 "
b0 $
1%
b0 )
1.
b0 2
b0 3
b0 5
16
b0 :
b0 <
b0 >
b0 ?

#107000
b10110 /
b10110 0

#110000
b11111111111111111111111111111111 !
b11111111111111111111111111111111 "
b11111111111111111111111111111111 $
0%
1(
b11111111111111111111111111111111 )
1-
0.
b11111111111111111111111111111111 2
b11111111111111111111111111111111 3
b11111111111111111111111111111111 5
06
19
b11111111111111111111111111111110 :
1;
b11111111111111111111111111111111 >
b11111111111111111111111111111111 ?

#112000
b10111 /
b10111 0

#115000
b100010001000100010001000100010 !
b11011101110111011101110111011101 "
1-
b100010001000100010001000100010 2
b11011101110111011101110111011101 3
b11111111111111111111111111111111 5
b11111111111111111111111111111111 :
0;
b1000100010001000100010001000101 <
1=
b0 >

#117000
b11000 /
b11000 0

#123000
b1100011101000011111100111100011 !
b1011000101110000000100100001011 "
b0 #
b10111100010110100000001011101110 $
1'
b10111100010110100000001011101110 )
1,
1-
b1100011101000011111100111100011 2
b1011000101110000000100100001011 3
b0 4
b10111100010110100000001011101110 5
18
b10111100010110100000001011101110 :
b1010111010011111000011011000 <
0=
b1000000101000000000100100000011 >
b1111011101110011111100111101011 ?

#125000
b11001 /
b11001 0

#128000
b100110000111000010111111110110 !
b10001001111000010011000111000101 "
b1 #
b10011100001110101111111000110001 $
b10011100001110101111111000110001 )
1,
1-
b100110000111000010111111110110 2
b10001001111000010011000111000101 3
b1 4
b10011100001110101111111000110001 5
18
b10101111111111010110000110111011 :
b10011100001110101111111000110001 <
1=
b10000111000100 >
b10101111111111010011111111110111 ?

#130000
b11010 /
b11010 0

#133000
b1110101100101101111100001000011 !
b1101101100000110010101110101000 "
b1000000100111100110010011011 $
1&
0'
0(
b1000000100111100110010011011 )
1*
0+
0,
0-
b1110101100101101111100001000011 2
b1101101100000110010101110101000 3
b1000000100111100110010011011 5
17
08
09
b11100011000110100010001111101011 :
b1000000100111100110010011011 <
0=
b1100101100000100010100000000000 >
b1111101100101111111101111101011 ?

#135000
b11011 /
b11011 0

#138000
b10101100110000010001010000010111 !
b10010011100111110101101110011111 "
b10 #
b10000000100000010001000000010111 $
0&
1(
b10000000100000010001000000010111 )
0*
1-
b10101100110000010001010000010111 2
b10010011100111110101101110011111 3
b10 4
b10000000100000010001000000010111 5
07
19
b1000000011000000110111110110110 :
1;
b11001001000011011100001111000 <
b10000000100000010001000000010111 >
b10111111110111110101111110011111 ?

#140000
b11100 /
b11100 0

#143000
b1010001101111100111011011011000 !
b10001001001101100101001111100010 "
b1001101100101001011000000 $
0(
b1001101100101001011000000 )
0-
b1010001101111100111011011011000 2
b10001001001101100101001111100010 3
b1001101100101001011000000 5
09
b11011010111101001100101010111010 :
0;
b11001000100010000010001011110110 <
1=
b1001101100101001011000000 >
b11011001101111100111011111111010 ?

#145000
b11101 /
b11101 0

#148000
b1001111011100111110001010100101 !
b10110101111101110110011111111001 "
b1 #
b10011001011111000111101010101100 $
1'
1(
b10011001011111000111101010101100 )
1+
1,
1-
b1001111011100111110001010100101 2
b10110101111101110110011111111001 3
b1 4
b10011001011111000111101010101100 5
18
19
b101011010110100101010011110 :
1;
b10011001011111000111101010101100 <
b101011100110110001010100001 >
b11111111111101111110011111111101 ?

#150000
b11110 /
b11110 0

#153000
b1010111000010101000000000110111 !
b111101101011101111011010001 "
b11 #
b1010111101111111101111011110111 $
0'
0(
b1010111101111111101111011110111 )
0,
0-
b1010111000010101000000000110111 2
b111101101011101111011010001 3
b11 4
b1010111101111111101111011110111 5
08
09
b1011110110000000101111100001000 :
0;
b1001111010101001010000101100110 <
0=
b111000000001000000000010001 >
b1010111101111111101111011110111 ?

#155000
b11111 /
b11111 0

#158000
b1001100001001000100100101110010 !
b1010111001010011100000101110111 "
b0 #
b10100011010011100000101011101001 $
1'
1(
b10100011010011100000101011101001 )
1,
1-
b1001100001001000100100101110010 2
b1010111001010011100000101110111 3
b0 4
b10100011010011100000101011101001 5
18
19
b10100011010011100000101011101001 :
b11110100111110101000011111111011 <
1=
b1000100001000000100000101110010 >
b1011111001011011100100101110111 ?

#160000
b100000 /
b100000 0

#163000
b1010100110111010110111001001011 !
b101110001101000100000110101110 "
b10 #
b100000101000100000000001010 $
0'
0(
b100000101000100000000001010 )
0,
0-
b1010100110111010110111001001011 2
b101110001101000100000110101110 3
b10 4
b100000101000100000000001010 5
08
09
b10000011000100011010111111111001 :
b100110101010010010110010011101 <
0=
b100000101000100000000001010 >
b1111110111111010110111111101111 ?

#165000
b100001 /
b100001 0

#168000
b1100110110011001110011100000111 !
b1111010010110001000101100100000 "
b1 #
b11101100011101000101101111100111 $
1(
b11101100011101000101101111100111 )
1-
b1100110110011001110011100000111 2
b1111010010110001000101100100000 3
b1 4
b11101100011101000101101111100111 5
19
b11100001001001010111001000100111 :
b11101100011101000101101111100111 <
1=
b1100010010010001000001100000000 >
b1111110110111001110111100100111 ?

#170000
b100010 /
b100010 0

#173000
b101110101100111100011110111011 !
b1001111001101011111100101101100 "
b11 #
b1101111101101111111111111111111 $
0(
b1101111101101111111111111111111 )
0-
b101110101100111100011110111011 2
b1001111001101011111100101101100 3
b11 4
b1101111101101111111111111111111 5
09
b1111101111010011100000100100111 :
b11011111011111011100111001001111 <
b1110001100011100000100101000 >
b1101111101101111111111111111111 ?

#175000
b100011 /
b100011 0

#178000
b1111110010100001000011101000001 !
b10110110000000101110000001110011 "
b0 #
b110100010100110110011110110100 $
1&
b110100010100110110011110110100 )
1*
b1111110010100001000011101000001 2
b10110110000000101110000001110011 3
b0 4
b110100010100110110011110110100 5
17
b110100010100110110011110110100 :
1;
b11001000010011011010011011001110 <
b110110000000001000000001000001 >
b11111110010100101110011101110011 ?

#180000
b100100 /
b100100 0

#183000
b100101000101110000100000111110 !
b1100100101101101010100000101110 "
b10001001110011011011000001101100 $
0&
1'
1(
b10001001110011011011000001101100 )
0*
1,
1-
b100101000101110000100000111110 2
b1100100101101101010100000101110 3
b10001001110011011011000001101100 5
07
18
19
b10001001110011011011000001101100 :
0;
b11000000011000000110000000010000 <
b100100000101100000100000101110 >
b1100101101101111010100000111110 ?

#185000
b100101 /
b100101 0

#188000
b1111010000100011100101011101010 !
b1100011000001110010111101110000 "
b11 #
b1111011000101111110111111111010 $
0'
0(
b1111011000101111110111111111010 )
0,
0-
b1111010000100011100101011101010 2
b1100011000001110010111101110000 3
b11 4
b1111011000101111110111111111010 5
08
09
b11011101000110001111101001011010 :
b10111000010101001101101111010 <
0=
b1100010000000010000101001100000 >
b1111011000101111110111111111010 ?

#190000
b100110 /
b100110 0

#193000
b1001001011001010001100010110110 !
b1000000111100011011110101110 "
b1 #
b1000001010001101110000100001000 $
1&
b1000001010001101110000100001000 )
1*
0+
b1001001011001010001100010110110 2
b1000000111100011011110101110 3
b1 4
b1000001010001101110000100001000 5
17
b1010001100000110101000001100100 :
b1000001010001101110000100001000 <
b1000000001000001000010100110 >
b1001001011111110011111110111110 ?

#195000
b100111 /
b100111 0

#198000
b1100111111011100101111111101110 !
b10001100000000001010011000 "
b1100101101111100101110101010110 $
b1100101101111100101110101010110 )
1*
b1100111111011100101111111101110 2
b10001100000000001010011000 3
b1100101101111100101110101010110 5
17
b1101010000111100110001010000110 :
b1100101101111100101110101010110 <
b10001000000000001010001000 >
b1100111111111100101111111111110 ?

#200000
b101000 /
b101000 0

#203000
b10111100011110101000011110011001 !
b1001011100101010001101101001110 "
b0 #
b1000000011111010001011100111 $
b1000000011111010001011100111 )
1*
b10111100011110101000011110011001 2
b1001011100101010001101101001110 3
b0 4
b1000000011111010001011100111 5
17
b1000000011111010001011100111 :
1;
b1110000111001010110110001001011 <
b1000000100000000001100001000 >
b11111111111111111001111111011111 ?

#205000
b101001 /
b101001 0

#208000
b1110101101111010101011101110010 !
b110011100000110111101100111100 "
b10101001010000001101001010101110 $
0&
1'
1(
b10101001010000001101001010101110 )
0*
1,
1-
b1110101101111010101011101110010 2
b110011100000110111101100111100 3
b10101001010000001101001010101110 5
07
18
19
b10101001010000001101001010101110 :
0;
b1000010001110011101110000110110 <
b110001100000010101001100110000 >
b1110111101111110111111101111110 ?

#210000
b101010 /
b101010 0

#213000
b10010010000001110101011010111100 !
b1101111111111100000001011010101 "
b11 #
b11111111111111110101011011111101 $
0'
b11111111111111110101011011111101 )
0,
1-
b10010010000001110101011010111100 2
b1101111111111100000001011010101 3
b11 4
b11111111111111110101011011111101 5
08
b10000001010101100110010001 :
1;
b100010000010010101001111100111 <
b10000001100000001010010100 >
b11111111111111110101011011111101 ?

#215000
b101011 /
b101011 0

#218000
b10110110011011111000110110110100 !
b1100101101110110101101001001000 "
b11110111111111111101111111111100 $
b11110111111111111101111111111100 )
1-
b10110110011011111000110110110100 2
b1100101101110110101101001001000 3
b11110111111111111101111111111100 5
b11100001010101110011111111100 :
b1010000101101000011001101101100 <
b100100001010110000100000000000 >
b11110111111111111101111111111100 ?

#220000
b101100 /
b101100 0

#223000
b1011101000001111100011101000100 !
b1110111110000101011000100000100 "
b1 #
b11100101010001010001011001000000 $
b11100101010001010001011001000000 )
1+
1-
b1011101000001111100011101000100 2
b1110111110000101011000100000100 3
b1 4
b11100101010001010001011001000000 5
b11010100110010100111100001001000 :
0;
b11100101010001010001011001000000 <
1=
b1010101000000101000000100000100 >
b1111111110001111111011101000100 ?

#225000
b101101 /
b101101 0

#228000
b1001111001101010001110000100011 !
b10101110001100100011111010111000 "
b10100001000000101101110101101011 $
1'
b10100001000000101101110101101011 )
1,
1-
b1001111001101010001110000100011 2
b10101110001100100011111010111000 3
b10100001000000101101110101101011 5
18
b11111101011001110101101011011011 :
b10100001000000101101110101101011 <
b1110001100000001110000100000 >
b11101111001101110011111010111011 ?

#230000
b101110 /
b101110 0

#233000
b1110100111001011110110000111111 !
b1011001110100000010111111100 "
b1101001101010111110011001000011 $
1&
0'
0(
b1101001101010111110011001000011 )
1*
0+
0,
0-
b1110100111001011110110000111111 2
b1011001110100000010111111100 3
b1101001101010111110011001000011 5
17
08
09
b10000000000111111111001000111011 :
b1101001101010111110011001000011 <
0=
b1000000000010000111100 >
b1111111111111111110110111111111 ?

#235000
b101111 /
b101111 0

#238000
b10001010100101001011111100110000 !
b1011010011011110010001000100000 "
b110000001001011001110100010000 $
1'
b110000001001011001110100010000 )
1*
1,
b10001010100101001011111100110000 2
b1011010011011110010001000100000 3
b110000001001011001110100010000 5
17
18
b11100101000000111110000101010000 :
b110000001001011001110100010000 <
b1010000001000010001000100000 >
b11011010111111111011111100110000 ?

#240000
b110000 /
b110000 0

#243000
b10000101111111101110110001101001 !
b1001111010101010000111001011111 "
b110110101010011101111000001010 $
b110110101010011101111000001010 )
1*
1,
b10000101111111101110110001101001 2
b1001111010101010000111001011111 3
b110110101010011101111000001010 5
17
18
b11010101010100111111101011001000 :
b110110101010011101111000001010 <
b101010101000000110001001001 >
b11001111111111111110111001111111 ?

#245000
b110001 /
b110001 0

#248000
b1111001001010111100101010100110 !
b1011001111010011100110110001111 "
b11111010000011111110100010111 $
0'
b11111010000011111110100010111 )
1*
0,
b1111001001010111100101010100110 2
b1011001111010011100110110001111 3
b11111010000011111110100010111 5
17
08
b11010011000101011001100000110101 :
b11111010000011111110100010111 <
b1011001001010011100100010000110 >
b1111001111010111100111110101111 ?

#250000
b110010 /
b110010 0

#253000
b10011010100010101110011110011011 !
b1011111111010001011100111111000 "
b0 #
b11111010011100111010000110010011 $
0&
1(
b11111010011100111010000110010011 )
0*
1-
b10011010100010101110011110011011 2
b1011111111010001011100111111000 3
b0 4
b11111010011100111010000110010011 5
07
19
b11111010011100111010000110010011 :
b111010101000100010110110100011 <
b11010100010001010000110011000 >
b11011111111010101111111111111011 ?

#255000
b110011 /
b110011 0

#258000
b1000111001001000000101010001100 !
b1011001000101001000010010011110 "
b11 #
b1011111001101001000111010011110 $
0(
b1011111001101001000111010011110 )
0-
b1000111001001000000101010001100 2
b1011001000101001000010010011110 3
b11 4
b1011111001101001000111010011110 5
09
b10100000001110001000111100101010 :
b11101110000011111000010111101110 <
1=
b1000001000001000000000010001100 >
b1011111001101001000111010011110 ?

#260000
b110100 /
b110100 0

#263000
b1001110001011000100111110011110 !
b1110011100111110110110000111001 "
b1111111101111110110111110111111 $
b1111111101111110110111110111111 )
b1001110001011000100111110011110 2
b1110011100111110110110000111001 3
b1111111101111110110111110111111 5
b11000001110010111011101111010111 :
b11011010100011001110001101100101 <
b1000010000011000100110000011000 >
b1111111101111110110111110111111 ?

#265000
b110101 /
b110101 0

#268000
b100100100010011010001100001110 !
b111010110000110111011011000101 "
b1 #
b11101001110001100010110001001001 $
1(
b11101001110001100010110001001001 )
1+
1-
b100100100010011010001100001110 2
b111010110000110111011011000101 3
b1 4
b11101001110001100010110001001001 5
19
b1011111010011010001100111010011 :
b11101001110001100010110001001001 <
b100000100000010010001000000100 >
b111110110010111111011111001111 ?

#270000
b110110 /
b110110 0

#273000
b1010100110100001100010000001110 !
b1000111011111100011001100011 "
b10 #
b110000001100010000000010 $
0(
b110000001100010000000010 )
0-
b1010100110100001100010000001110 2
b1000111011111100011001100011 3
b10 4
b110000001100010000000010 5
09
b1011101110000001000101001110001 :
b1001011111000001111110110101011 <
0=
b110000001100010000000010 >
b1011100111111111100011001101111 ?

#275000
b110111 /
b110111 0

#278000
b1100101000000001001111100000101 !
b10101101011110010110100101110010 "
b0 #
b10010011110100000100001110111 $
1&
b10010011110100000100001110111 )
1*
b1100101000000001001111100000101 2
b10101101011110010110100101110010 3
b0 4
b10010011110100000100001110111 5
17
b10010011110100000100001110111 :
1;
b10110111100001110011010110010011 <
1=
b100101000000000000100100000000 >
b11101101011110011111111101110111 ?

#280000
b111000 /
b111000 0

#283000
b1001110010001001111111010011011 !
b10000010010010100010110110000000 "
b11 #
b11001110010011101111111110011011 $
0&
1(
b11001110010011101111111110011011 )
0*
1-
b1001110010001001111111010011011 2
b10000010010010100010110110000000 3
b11 4
b11001110010011101111111110011011 5
07
19
b11010000100011110010110000011011 :
0;
b11001011111110101101000100011011 <
b10010000000010110010000000 >
b11001110010011101111111110011011 ?

#285000
b111001 /
b111001 0

#288000
b101011001010001100101001101001 !
b1100111010010101100110010000101 "
b1 #
b11000011110111011111110111100100 $
b11000011110111011111110111100100 )
1-
b101011001010001100101001101001 2
b1100111010010101100110010000101 3
b1 4
b11000011110111011111110111100100 5
b10010010011100111001011011101110 :
b11000011110111011111110111100100 <
b100011000010001100100000000001 >
b1101111011010101100111011101101 ?

#290000
b111010 /
b111010 0

#293000
b1000010110100000000110011111101 !
b110101100011111100101100100000 "
b1101010000000100000111011101 $
1&
0(
b1101010000000100000111011101 )
1*
0+
0-
b1000010110100000000110011111101 2
b110101100011111100101100100000 3
b1101010000000100000111011101 5
17
09
b1111000010111111101100000011101 :
b1101010000000100000111011101 <
0=
b100000000000100000100000 >
b1110111110111111100111111111101 ?

#295000
b111011 /
b111011 0

#298000
b1100011011001110001010111110101 !
b1100000101110001001010110001010 "
b11 #
b1100011111111111001010111111111 $
0&
b1100011111111111001010111111111 )
0*
b1100011011001110001010111110101 2
b1100000101110001001010110001010 3
b11 4
b1100011111111111001010111111111 5
07
b11000100000111111010101101111111 :
b10101011101000000001101011 <
b1100000001000000001010110000000 >
b1100011111111111001010111111111 ?

#300000
b111100 /
b111100 0

#303000
b110001011101111000100001011110 !
b100011100010001010001010000111 "
b110011111111111010101011011111 $
b110011111111111010101011011111 )
b110001011101111000100001011110 2
b100011100010001010001010000111 3
b110011111111111010101011011111 5
b1010101000000000010101011100101 :
b1101111011101110010111010111 <
b100001000000001000000000000110 >
b110011111111111010101011011111 ?

#305000
b111101 /
b111101 0

#308000
b10000001110100100010100001001000 !
b110111011111011100001111100 "
b1 #
b1111010111000100110111111001100 $
1&
1'
b1111010111000100110111111001100 )
1*
1,
b10000001110100100010100001001000 2
b110111011111011100001111100 3
b1 4
b1111010111000100110111111001100 5
17
18
b10001000110000011110000011000100 :
b1111010111000100110111111001100 <
b110000100010100001001000 >
b10000111111111111011100001111100 ?

#310000
b111110 /
b111110 0

#313000
b10111001011101111001010010110111 !
b10111000011001110100000011011011 "
b1000100000101001111011100 $
0'
b1000100000101001111011100 )
1*
0,
b10111001011101111001010010110111 2
b10111000011001110100000011011011 3
b1000100000101001111011100 5
17
08
b1110001110111101101010110010010 :
1;
b1000100000101001111011100 <
b10111000011001110000000010010011 >
b10111001011101111101010011111111 ?

#315000
b111111 /
b111111 0

#318000
b100110101011001100110001000110 !
b10111010001110010110100100100011 "
b1101100011100110110001100100011 $
0&
b1101100011100110110001100100011 )
0*
1+
b100110101011001100110001000110 2
b10111010001110010110100100100011 3
b1101100011100110110001100100011 5
07
b11100000111001100011010101101001 :
0;
b1101100011100110110001100100011 <
1=
b100010001010000100100000000010 >
b10111110101111011110110101100111 ?

#320000
b1000000 /
b1000000 0

#323000
b1110100100110101001100101100000 !
b1110011101100001111110111011010 "
b0 #
b11101000010010111001011100111010 $
1'
1(
b11101000010010111001011100111010 )
1,
1-
b1110100100110101001100101100000 2
b1110011101100001111110111011010 3
b0 4
b11101000010010111001011100111010 5
18
19
b11101000010010111001011100111010 :
b111010011001101110000110 <
0=
b1110000100100001001100101000000 >
b1110111101110101111110111111010 ?

#325000
b1000001 /
b1000001 0

#328000
b1100110000100010000100100000001 !
b11010010111011100101000100000 "
b11 #
b1111110010111011100101100100001 $
0'
0(
b1111110010111011100101100100001 )
0,
0-
b1100110000100010000100100000001 2
b11010010111011100101000100000 3
b11 4
b1111110010111011100101100100001 5
08
09
b10000000011011101101001100100001 :
b1001011101100110011111011100001 <
b10000100010000100000000000 >
b1111110010111011100101100100001 ?

#330000
b1000010 /
b1000010 0

#333000
b1011110011101110011000100011110 !
b1110111110000110001110000000 "
b1 #
b1001111011111101100110110011110 $
1&
b1001111011111101100110110011110 )
1*
0+
b1011110011101110011000100011110 2
b1110111110000110001110000000 3
b1 4
b1001111011111101100110110011110 5
17
b1101101011011111001010010011110 :
b1001111011111101100110110011110 <
b1110011100000010000100000000 >
b1011110111111110111001110011110 ?

#335000
b1000011 /
b1000011 0

#338000
b10001111010001001001101000010111 !
b1110101000010010110110010000001 "
b10 #
b101000000000000100000000001 $
0&
b101000000000000100000000001 )
0*
b10001111010001001001101000010111 2
b1110101000010010110110010000001 3
b10 4
b101000000000000100000000001 5
07
b100010011100000011010011000 :
1;
b11010001110110010110110010110 <
b101000000000000100000000001 >
b11111111010011011111111010010111 ?

#340000
b1000100 /
b1000100 0

#343000
b1111010010010110110110000110010 !
b1010011100000001001110110100000 "
b1010010000000000000110000100000 $
b1010010000000000000110000100000 )
b1111010010010110110110000110010 2
b1010011100000001001110110100000 3
b1010010000000000000110000100000 5
b11001101110011000000100111010010 :
0;
b100110110010101100111010010010 <
b1010010000000000000110000100000 >
b1111011110010111111110110110010 ?

#345000
b1000101 /
b1000101 0

#348000
b1011001000000110011110000101000 !
b1100010110001010011011110110111 "
b0 #
b10111011110010000111001111011111 $
1'
1(
b10111011110010000111001111011111 )
1,
1-
b1011001000000110011110000101000 2
b1100010110001010011011110110111 3
b0 4
b10111011110010000111001111011111 5
18
19
b10111011110010000111001111011111 :
b11110110001111100000010001110001 <
1=
b1000000000000010011010000100000 >
b1111011110001110011111110111111 ?

#350000
b1000110 /
b1000110 0

#353000
b1010010000110001101011000111110 !
b1011101000100001010001111101001 "
b10101111001010010111101000100111 $
b10101111001010010111101000100111 )
1,
1-
b1010010000110001101011000111110 2
b1011101000100001010001111101001 3
b10101111001010010111101000100111 5
18
b10101111001010010111101000100111 :
b11110101000010000011001001010101 <
b1010000000100001000001000101000 >
b1011111000110001111011111111111 ?

#355000
b1000111 /
b1000111 0

#358000
b1011010001001101101001111010100 !
b110110000100111110000000010001 "
b11 #
b1111110001101111111001111010101 $
0'
0(
b1111110001101111111001111010101 )
0,
0-
b1011010001001101101001111010100 2
b110110000100111110000000010001 3
b11 4
b1111110001101111111001111010101 5
08
09
b10010000001110101011001111100101 :
b100100000100101111001111000011 <
0=
b10010000000101100000000010000 >
b1111110001101111111001111010101 ?

#360000
b1001000 /
b1001000 0

#363000
b1010111001111100011110111101100 !
b1000001011001011011001001111 "
b0 #
b1011111011010101111010000111011 $
b1011111011010101111010000111011 )
b1010111001111100011110111101100 2
b1000001011001011011001001111 3
b0 4
b1011111011010101111010000111011 5
b1011111011010101111010000111011 :
b1001111000100011000011110011101 <
b1011000011010001001100 >
b1011111001111101011111111101111 ?

#365000
b1001001 /
b1001001 0

#368000
b100111110101100100010110100100 !
b1100010010100111000101000100100 "
b10 #
b100010010100100000000000100100 $
b100010010100100000000000100100 )
b100111110101100100010110100100 2
b1100010010100111000101000100100 3
b10 4
b100010010100100000000000100100 5
b10001010001010011100111111001000 :
b11000101100000101011101110000000 <
1=
b100010010100100000000000100100 >
b1100111110101111100111110100100 ?

#370000
b1001010 /
b1001010 0

#373000
b1011011001100111000010100010011 !
b111001100100011100100000010000 "
b1 #
b100001101000011011110100000011 $
1&
b100001101000011011110100000011 )
1*
b1011011001100111000010100010011 2
b111001100100011100100000010000 3
b1 4
b100001101000011011110100000011 5
17
b10010100110001010100110100100011 :
b100001101000011011110100000011 <
0=
b11001000100011000000000010000 >
b1111011101100111100110100010011 ?

#375000
b1001011 /
b1001011 0

#378000
b1101011101000010110100001101100 !
b1100001011010000000110110110101 "
b1010001110010101101010110111 $
b1010001110010101101010110111 )
1*
b1101011101000010110100001101100 2
b1100001011010000000110110110101 3
b1010001110010101101010110111 5
17
b11001101000010010111011000100001 :
b1010001110010101101010110111 <
b1100001001000000000100000100100 >
b1101011111010010110110111111101 ?

#380000
b1001100 /
b1001100 0

#383000
b10110010001000110010101111010110 !
b111100100110111001001011001000 "
b10 #
b110000000000110000001011000000 $
0&
b110000000000110000001011000000 )
0*
b10110010001000110010101111010110 2
b111100100110111001001011001000 3
b10 4
b110000000000110000001011000000 5
07
b11101110101111101011111010011110 :
b1110101100001111001100100001110 <
b110000000000110000001011000000 >
b10111110101110111011101111011110 ?

#385000
b1001101 /
b1001101 0

